{
  "flows": [
    "flows/ffb688c.f004978-TouchpointsUI.json",
    "flows/98328167.67cd8-Actions.json",
    "flows/396136e3.c69eca-CDNProxy.json",
    "flows/b1cd86ed.f973b8-Flow1.json",
    "flows/9c904440.636fb8-ClientApp.json",
    "flows/a889b270.57765-GeneralConfig.json"
  ],
  "configs": [
    {
      "id": "8c53e57a.73ac18",
      "type": "websocket-listener",
      "z": "",
      "path": "/ws/customer",
      "wholemsg": "false"
    },
    {
      "id": "3c53c61c.c3ac3a",
      "type": "websocket-listener",
      "z": "",
      "path": "/ws/screen",
      "wholemsg": "false"
    },
    {
      "id": "35e0b57a.ca1f4a",
      "type": "websocket-listener",
      "z": "",
      "path": "/ws/assistant",
      "wholemsg": "false"
    },
    {
      "id": "fa0fd650.05f028",
      "type": "websocket-listener",
      "z": "",
      "path": "/ws/back-office",
      "wholemsg": "false"
    }
  ],
  "credentials": {
    "1aae96ab.e55169": {},
    "e2d93891.1d26c8": {},
    "7bb6051a.8449fc": {}
  }
}