{
  "type": "tab",
  "id": "396136e3.c69eca",
  "label": "CDN",
  "flow": [
    {
      "id": "9d5fd369.62a03",
      "type": "http in",
      "z": "396136e3.c69eca",
      "name": "Content Request",
      "url": "/content/*",
      "method": "get",
      "swaggerDoc": "",
      "x": 153.33331108093262,
      "y": 144.6666555404663,
      "wires": [
        [
          "d697712c.29689"
        ]
      ]
    },
    {
      "id": "1aae96ab.e55169",
      "type": "http request",
      "z": "396136e3.c69eca",
      "name": "Get from Remote Store",
      "method": "GET",
      "ret": "bin",
      "url": "",
      "x": 597.7777767181396,
      "y": 144.33332633972168,
      "wires": [
        [
          "3f42f031.c0bd1",
          "2c6ec4d1.d3913c"
        ]
      ]
    },
    {
      "id": "d697712c.29689",
      "type": "function",
      "z": "396136e3.c69eca",
      "name": "Content Store URL",
      "func": "\nvar assetStore = 'https://s3-eu-west-1.amazonaws.com/connected-exp-demo-files.redant.com/';\n\n\nmsg.url = assetStore + msg.req.params[0];\n\nreturn msg;",
      "outputs": 1,
      "noerr": 0,
      "x": 363.3333263397217,
      "y": 144.4444408416748,
      "wires": [
        [
          "1aae96ab.e55169"
        ]
      ]
    },
    {
      "id": "3f42f031.c0bd1",
      "type": "http response",
      "z": "396136e3.c69eca",
      "name": "Respond",
      "x": 806.6666088104248,
      "y": 144.111102104187,
      "wires": []
    },
    {
      "id": "de3358fd.21cca8",
      "type": "comment",
      "z": "396136e3.c69eca",
      "name": "Redirects to specific content store (could be S3 bucket or local to server)",
      "info": "",
      "x": 336.66664102342395,
      "y": 96.66665564643012,
      "wires": []
    },
    {
      "id": "2c6ec4d1.d3913c",
      "type": "debug",
      "z": "396136e3.c69eca",
      "name": "",
      "active": true,
      "console": "false",
      "complete": "payload",
      "x": 812.2222222222222,
      "y": 203.33333333333331,
      "wires": []
    }
  ]
}