{
  "type": "tab",
  "id": "98328167.67cd8",
  "label": "Actions",
  "flow": [
    {
      "id": "58239500.a7dc6c",
      "type": "http response",
      "z": "98328167.67cd8",
      "name": "Respond Success",
      "x": 450,
      "y": 315.24999713897705,
      "wires": []
    },
    {
      "id": "3ae935fc.c516ca",
      "type": "websocket out",
      "z": "98328167.67cd8",
      "name": "Send to Customer",
      "server": "8c53e57a.73ac18",
      "client": "",
      "x": 636.2500228881836,
      "y": 135.25000381469727,
      "wires": []
    },
    {
      "id": "758fd8af.8a7028",
      "type": "websocket out",
      "z": "98328167.67cd8",
      "name": "Send to Assistant",
      "server": "35e0b57a.ca1f4a",
      "client": "",
      "x": 651.2499847412109,
      "y": 276.4999771118164,
      "wires": []
    },
    {
      "id": "b9abd578.465428",
      "type": "websocket out",
      "z": "98328167.67cd8",
      "name": "Send to Back Office",
      "server": "fa0fd650.05f028",
      "client": "",
      "x": 627.5000076293945,
      "y": 39.00000858306885,
      "wires": []
    },
    {
      "id": "243b144b.dbc4ec",
      "type": "websocket out",
      "z": "98328167.67cd8",
      "name": "Send to Store Screen",
      "server": "3c53c61c.c3ac3a",
      "client": "",
      "x": 669.75,
      "y": 440.24999809265137,
      "wires": []
    },
    {
      "id": "fa6a05c0.0595f8",
      "type": "function",
      "z": "98328167.67cd8",
      "name": "Show Hub",
      "func": "msg.payload = {\n    event : 'show',\n    details : 'screen-hub'\n};\nreturn msg;",
      "outputs": 1,
      "noerr": 0,
      "x": 462.49998474121094,
      "y": 276.4999771118164,
      "wires": [
        [
          "758fd8af.8a7028"
        ]
      ]
    },
    {
      "id": "76b5f8fc.894a08",
      "type": "inject",
      "z": "98328167.67cd8",
      "name": "Reset",
      "topic": "",
      "payload": "",
      "payloadType": "none",
      "repeat": "",
      "crontab": "",
      "once": false,
      "x": 157.25000762939453,
      "y": 93.7500057220459,
      "wires": [
        [
          "a4aa90ee.5b557"
        ]
      ]
    },
    {
      "id": "a4aa90ee.5b557",
      "type": "function",
      "z": "98328167.67cd8",
      "name": "Reset Action",
      "func": "msg.payload = {\n    event : 'reset',\n};\nreturn msg;",
      "outputs": 1,
      "noerr": 0,
      "x": 374.75001525878906,
      "y": 95.00000667572021,
      "wires": [
        [
          "a682802f.597d8",
          "3ae935fc.c516ca",
          "f9bb11b2.0644f",
          "b9abd578.465428"
        ]
      ]
    },
    {
      "id": "a682802f.597d8",
      "type": "websocket out",
      "z": "98328167.67cd8",
      "name": "Send to Assistant",
      "server": "35e0b57a.ca1f4a",
      "client": "",
      "x": 627.2500076293945,
      "y": 80,
      "wires": []
    },
    {
      "id": "7c5ba172.83a46",
      "type": "http in",
      "z": "98328167.67cd8",
      "name": "Reset Demo",
      "url": "/action/reset",
      "method": "get",
      "swaggerDoc": "",
      "x": 172.00000762939453,
      "y": 93.5000057220459,
      "wires": [
        [
          "a4aa90ee.5b557",
          "5ee931eb.a116d"
        ]
      ]
    },
    {
      "id": "5ee931eb.a116d",
      "type": "http response",
      "z": "98328167.67cd8",
      "name": "Respond Success",
      "x": 382.2500305175781,
      "y": 162.50000762939453,
      "wires": []
    },
    {
      "id": "2eb8f3c6.d1470c",
      "type": "inject",
      "z": "98328167.67cd8",
      "name": "",
      "topic": "",
      "payload": "",
      "payloadType": "none",
      "repeat": "",
      "crontab": "",
      "once": false,
      "x": 163.49998092651367,
      "y": 276.2499780654907,
      "wires": [
        [
          "fa6a05c0.0595f8"
        ]
      ]
    },
    {
      "id": "e931429b.16cec",
      "type": "http in",
      "z": "98328167.67cd8",
      "name": "Request Assistant",
      "url": "/action/requestAssistant",
      "method": "get",
      "swaggerDoc": "",
      "x": 193.4999771118164,
      "y": 276.24997901916504,
      "wires": [
        [
          "fa6a05c0.0595f8",
          "58239500.a7dc6c"
        ]
      ]
    },
    {
      "id": "6eb66588.91499c",
      "type": "http response",
      "z": "98328167.67cd8",
      "name": "Respond Success",
      "x": 443.4999694824219,
      "y": 483.7500009536743,
      "wires": []
    },
    {
      "id": "3324a067.ccdb6",
      "type": "function",
      "z": "98328167.67cd8",
      "name": "Show Specified Screen",
      "func": "msg.payload = {\n        event : 'show',\n        details : msg.req.params.id\n};\n\nreturn msg;",
      "outputs": 1,
      "noerr": 0,
      "x": 449.7499771118164,
      "y": 440.2499761581421,
      "wires": [
        [
          "243b144b.dbc4ec"
        ]
      ]
    },
    {
      "id": "6188f0cc.9e771",
      "type": "inject",
      "z": "98328167.67cd8",
      "name": "",
      "topic": "",
      "payload": "",
      "payloadType": "none",
      "repeat": "",
      "crontab": "",
      "once": false,
      "x": 150.74997329711914,
      "y": 440.9999752044678,
      "wires": [
        []
      ]
    },
    {
      "id": "1b548587.e4ab7a",
      "type": "http in",
      "z": "98328167.67cd8",
      "name": "Toggle Screen Cast",
      "url": "/action/cast/:id",
      "method": "get",
      "swaggerDoc": "",
      "x": 180.74996948242188,
      "y": 440.9999761581421,
      "wires": [
        [
          "6eb66588.91499c",
          "3324a067.ccdb6"
        ]
      ]
    },
    {
      "id": "f9bb11b2.0644f",
      "type": "websocket out",
      "z": "98328167.67cd8",
      "name": "Send to Store Screen",
      "server": "3c53c61c.c3ac3a",
      "client": "",
      "x": 645,
      "y": 191.9999942779541,
      "wires": []
    },
    {
      "id": "57ded8a1.a82128",
      "type": "http response",
      "z": "98328167.67cd8",
      "name": "Respond Success",
      "x": 440.74999237060547,
      "y": 611.9999732971191,
      "wires": []
    },
    {
      "id": "514ab7e8.aeb548",
      "type": "function",
      "z": "98328167.67cd8",
      "name": "Show Fetch Product",
      "func": "msg.payload = {\n        event : 'show',\n        details : 'screen-fetch-product'\n};\n\nreturn msg;",
      "outputs": 1,
      "noerr": 0,
      "x": 447,
      "y": 568.4999485015869,
      "wires": [
        [
          "f41a0885.0be5f8",
          "e030f5fe.1fcf08"
        ]
      ]
    },
    {
      "id": "fc61f1a8.039e1",
      "type": "inject",
      "z": "98328167.67cd8",
      "name": "",
      "topic": "",
      "payload": "",
      "payloadType": "none",
      "repeat": "",
      "crontab": "",
      "once": false,
      "x": 147.99999618530273,
      "y": 569.2499475479126,
      "wires": [
        [
          "514ab7e8.aeb548"
        ]
      ]
    },
    {
      "id": "1a1010b7.e5efef",
      "type": "http in",
      "z": "98328167.67cd8",
      "name": "Request Product",
      "url": "/action/buy",
      "method": "get",
      "swaggerDoc": "",
      "x": 180.49999237060547,
      "y": 567.9999332427979,
      "wires": [
        [
          "57ded8a1.a82128",
          "514ab7e8.aeb548"
        ]
      ]
    },
    {
      "id": "f41a0885.0be5f8",
      "type": "websocket out",
      "z": "98328167.67cd8",
      "name": "Send to Back Office",
      "server": "fa0fd650.05f028",
      "client": "",
      "x": 688.7500076293945,
      "y": 571.2500095367432,
      "wires": []
    },
    {
      "id": "e030f5fe.1fcf08",
      "type": "delay",
      "z": "98328167.67cd8",
      "name": "",
      "pauseType": "delay",
      "timeout": "1",
      "timeoutUnits": "seconds",
      "rate": "1",
      "rateUnits": "second",
      "randomFirst": "1",
      "randomLast": "5",
      "randomUnits": "seconds",
      "drop": false,
      "x": 660.0000076293945,
      "y": 645.0000095367432,
      "wires": [
        [
          "77c80896.8837f8",
          "660c703b.99f39",
          "93b332a2.6c4cd"
        ]
      ]
    },
    {
      "id": "77c80896.8837f8",
      "type": "function",
      "z": "98328167.67cd8",
      "name": "Show Checkout",
      "func": "msg.payload = {\n        event : 'show',\n        details : 'screen-checkout'\n};\n\nreturn msg;",
      "outputs": 1,
      "noerr": 0,
      "x": 841.2500152587891,
      "y": 616.2500095367432,
      "wires": [
        [
          "7fd7840.f80287c"
        ]
      ]
    },
    {
      "id": "7fd7840.f80287c",
      "type": "websocket out",
      "z": "98328167.67cd8",
      "name": "Send to Assistant",
      "server": "35e0b57a.ca1f4a",
      "client": "",
      "x": 1041.250015258789,
      "y": 616.2500095367432,
      "wires": []
    },
    {
      "id": "bdaa20ee.4255e",
      "type": "websocket out",
      "z": "98328167.67cd8",
      "name": "Send to Customer",
      "server": "8c53e57a.73ac18",
      "client": "",
      "x": 1042.500015258789,
      "y": 676.2500095367432,
      "wires": []
    },
    {
      "id": "660c703b.99f39",
      "type": "function",
      "z": "98328167.67cd8",
      "name": "Request Checkout",
      "func": "msg.payload = {\n        event : 'alert',\n        details : {\n            message : 'Would you like to pay for your order?',\n            action : {\n                event : 'show',\n                details : 'screen-checkout'\n            }\n        }\n};\n\nreturn msg;",
      "outputs": 1,
      "noerr": 0,
      "x": 838.7500114440918,
      "y": 676.2500095367432,
      "wires": [
        [
          "bdaa20ee.4255e"
        ]
      ]
    },
    {
      "id": "93b332a2.6c4cd",
      "type": "function",
      "z": "98328167.67cd8",
      "name": "Show Waiting Screen",
      "func": "msg.payload = {\n        event : 'show',\n        details : 'screen-waiting'\n};\n\nreturn msg;",
      "outputs": 1,
      "noerr": 0,
      "x": 838.8888053894043,
      "y": 753.3332672119141,
      "wires": [
        [
          "990c35f3.66f3c8"
        ]
      ]
    },
    {
      "id": "990c35f3.66f3c8",
      "type": "websocket out",
      "z": "98328167.67cd8",
      "name": "Send to Back Office",
      "server": "fa0fd650.05f028",
      "client": "",
      "x": 1049.9999656677246,
      "y": 754.4444332122803,
      "wires": []
    },
    {
      "id": "47b28c5.fb84d74",
      "type": "function",
      "z": "98328167.67cd8",
      "name": "Request assistance notification",
      "func": "msg.payload = {\n        event : 'notify',\n        details : 'A customer (Janet) requires assistance'\n};\n\nreturn msg;",
      "outputs": 1,
      "noerr": 0,
      "x": 487,
      "y": 315,
      "wires": [
        [
          "758fd8af.8a7028"
        ]
      ]
    },
    {
      "id": "9960c41d.669f38",
      "type": "function",
      "z": "98328167.67cd8",
      "name": "Sales target notification",
      "func": "msg.payload = {\n        event : 'notify',\n        details : \"Congratulations! 70% of sales target reached\"\n};\n\nreturn msg;",
      "outputs": 1,
      "noerr": 0,
      "x": 429,
      "y": 859,
      "wires": [
        [
          "e63d7180.19c29",
          "4050976c.bfaf68"
        ]
      ]
    },
    {
      "id": "127f5779.ed80a9",
      "type": "http response",
      "z": "98328167.67cd8",
      "name": "Respond Success",
      "x": 410,
      "y": 898,
      "wires": []
    },
    {
      "id": "e63d7180.19c29",
      "type": "websocket out",
      "z": "98328167.67cd8",
      "name": "Send to Assistant",
      "server": "35e0b57a.ca1f4a",
      "client": "",
      "x": 663,
      "y": 859,
      "wires": []
    },
    {
      "id": "7bb6051a.8449fc",
      "type": "http request",
      "z": "98328167.67cd8",
      "name": "Reset All",
      "method": "GET",
      "ret": "txt",
      "url": "http://localhost/action/requestAssistant",
      "x": 771,
      "y": 913,
      "wires": [
        []
      ]
    },
    {
      "id": "cdeb75ce.321488",
      "type": "inject",
      "z": "98328167.67cd8",
      "name": "",
      "topic": "",
      "payload": "",
      "payloadType": "none",
      "repeat": "",
      "crontab": "",
      "once": false,
      "x": 126,
      "y": 859,
      "wires": [
        [
          "9960c41d.669f38"
        ]
      ]
    },
    {
      "id": "5f02e0a5.a0fd2",
      "type": "http in",
      "z": "98328167.67cd8",
      "name": "Checkout Complete",
      "url": "/action/checkoutComplete",
      "method": "get",
      "swaggerDoc": "",
      "x": 170,
      "y": 859,
      "wires": [
        [
          "9960c41d.669f38",
          "127f5779.ed80a9"
        ]
      ]
    },
    {
      "id": "4050976c.bfaf68",
      "type": "delay",
      "z": "98328167.67cd8",
      "name": "",
      "pauseType": "delay",
      "timeout": "1",
      "timeoutUnits": "seconds",
      "rate": "1",
      "rateUnits": "second",
      "randomFirst": "1",
      "randomLast": "5",
      "randomUnits": "seconds",
      "drop": false,
      "x": 628,
      "y": 913,
      "wires": [
        [
          "7bb6051a.8449fc"
        ]
      ]
    }
  ]
}